{
	"count": 37,
	"next": "https://swapi.dev/api/species/?page=2",
	"previous": null,
	"results": [
		{
			"name": "Human",
			"classification": "mammal",
			"designation": "sentient",
			"average_height": "180",
			"skin_colors": "caucasian, black, asian, hispanic",
			"hair_colors": "blonde, brown, black, red",
			"eye_colors": "brown, blue, green, hazel, grey, amber",
			"average_lifespan": "120",
			"homeworld": "https://swapi.dev/api/planets/9/",
			"language": "Galactic Basic",
			"people": [
				"https://swapi.dev/api/people/66/",
				"https://swapi.dev/api/people/67/",
				"https://swapi.dev/api/people/68/",
				"https://swapi.dev/api/people/74/"
			],
			"films": [
				"https://swapi.dev/api/films/1/",
				"https://swapi.dev/api/films/2/",
				"https://swapi.dev/api/films/3/",
				"https://swapi.dev/api/films/4/",
				"https://swapi.dev/api/films/5/",
				"https://swapi.dev/api/films/6/"
			],
			"created": "2014-12-10T13:52:11.567000Z",
			"edited": "2014-12-20T21:36:42.136000Z",
			"url": "https://swapi.dev/api/species/1/"
		},
		{
			"name": "Droid",
			"classification": "artificial",
			"designation": "sentient",
			"average_height": "n/a",
			"skin_colors": "n/a",
			"hair_colors": "n/a",
			"eye_colors": "n/a",
			"average_lifespan": "indefinite",
			"homeworld": null,
			"language": "n/a",
			"people": [
				"https://swapi.dev/api/people/2/",
				"https://swapi.dev/api/people/3/",
				"https://swapi.dev/api/people/8/",
				"https://swapi.dev/api/people/23/"
			],
			"films": [
				"https://swapi.dev/api/films/1/",
				"https://swapi.dev/api/films/2/",
				"https://swapi.dev/api/films/3/",
				"https://swapi.dev/api/films/4/",
				"https://swapi.dev/api/films/5/",
				"https://swapi.dev/api/films/6/"
			],
			"created": "2014-12-10T15:16:16.259000Z",
			"edited": "2014-12-20T21:36:42.139000Z",
			"url": "https://swapi.dev/api/species/2/"
		},
		{
			"name": "Wookie",
			"classification": "mammal",
			"designation": "sentient",
			"average_height": "210",
			"skin_colors": "gray",
			"hair_colors": "black, brown",
			"eye_colors": "blue, green, yellow, brown, golden, red",
			"average_lifespan": "400",
			"homeworld": "https://swapi.dev/api/planets/14/",
			"language": "Shyriiwook",
			"people": [
				"https://swapi.dev/api/people/13/",
				"https://swapi.dev/api/people/80/"
			],
			"films": [
				"https://swapi.dev/api/films/1/",
				"https://swapi.dev/api/films/2/",
				"https://swapi.dev/api/films/3/",
				"https://swapi.dev/api/films/6/"
			],
			"created": "2014-12-10T16:44:31.486000Z",
			"edited": "2014-12-20T21:36:42.142000Z",
			"url": "https://swapi.dev/api/species/3/"
		},
		{
			"name": "Rodian",
			"classification": "sentient",
			"designation": "reptilian",
			"average_height": "170",
			"skin_colors": "green, blue",
			"hair_colors": "n/a",
			"eye_colors": "black",
			"average_lifespan": "unknown",
			"homeworld": "https://swapi.dev/api/planets/23/",
			"language": "Galatic Basic",
			"people": [
				"https://swapi.dev/api/people/15/"
			],
			"films": [
				"https://swapi.dev/api/films/1/"
			],
			"created": "2014-12-10T17:05:26.471000Z",
			"edited": "2014-12-20T21:36:42.144000Z",
			"url": "https://swapi.dev/api/species/4/"
		},
		{
			"name": "Hutt",
			"classification": "gastropod",
			"designation": "sentient",
			"average_height": "300",
			"skin_colors": "green, brown, tan",
			"hair_colors": "n/a",
			"eye_colors": "yellow, red",
			"average_lifespan": "1000",
			"homeworld": "https://swapi.dev/api/planets/24/",
			"language": "Huttese",
			"people": [
				"https://swapi.dev/api/people/16/"
			],
			"films": [
				"https://swapi.dev/api/films/1/",
				"https://swapi.dev/api/films/3/"
			],
			"created": "2014-12-10T17:12:50.410000Z",
			"edited": "2014-12-20T21:36:42.146000Z",
			"url": "https://swapi.dev/api/species/5/"
		},
		{
			"name": "Yoda's species",
			"classification": "mammal",
			"designation": "sentient",
			"average_height": "66",
			"skin_colors": "green, yellow",
			"hair_colors": "brown, white",
			"eye_colors": "brown, green, yellow",
			"average_lifespan": "900",
			"homeworld": "https://swapi.dev/api/planets/28/",
			"language": "Galactic basic",
			"people": [
				"https://swapi.dev/api/people/20/"
			],
			"films": [
				"https://swapi.dev/api/films/2/",
				"https://swapi.dev/api/films/3/",
				"https://swapi.dev/api/films/4/",
				"https://swapi.dev/api/films/5/",
				"https://swapi.dev/api/films/6/"
			],
			"created": "2014-12-15T12:27:22.877000Z",
			"edited": "2014-12-20T21:36:42.148000Z",
			"url": "https://swapi.dev/api/species/6/"
		},
		{
			"name": "Trandoshan",
			"classification": "reptile",
			"designation": "sentient",
			"average_height": "200",
			"skin_colors": "brown, green",
			"hair_colors": "none",
			"eye_colors": "yellow, orange",
			"average_lifespan": "unknown",
			"homeworld": "https://swapi.dev/api/planets/29/",
			"language": "Dosh",
			"people": [
				"https://swapi.dev/api/people/24/"
			],
			"films": [
				"https://swapi.dev/api/films/2/"
			],
			"created": "2014-12-15T13:07:47.704000Z",
			"edited": "2014-12-20T21:36:42.151000Z",
			"url": "https://swapi.dev/api/species/7/"
		},
		{
			"name": "Mon Calamari",
			"classification": "amphibian",
			"designation": "sentient",
			"average_height": "160",
			"skin_colors": "red, blue, brown, magenta",
			"hair_colors": "none",
			"eye_colors": "yellow",
			"average_lifespan": "unknown",
			"homeworld": "https://swapi.dev/api/planets/31/",
			"language": "Mon Calamarian",
			"people": [
				"https://swapi.dev/api/people/27/"
			],
			"films": [
				"https://swapi.dev/api/films/3/"
			],
			"created": "2014-12-18T11:09:52.263000Z",
			"edited": "2014-12-20T21:36:42.153000Z",
			"url": "https://swapi.dev/api/species/8/"
		},
		{
			"name": "Ewok",
			"classification": "mammal",
			"designation": "sentient",
			"average_height": "100",
			"skin_colors": "brown",
			"hair_colors": "white, brown, black",
			"eye_colors": "orange, brown",
			"average_lifespan": "unknown",
			"homeworld": "https://swapi.dev/api/planets/7/",
			"language": "Ewokese",
			"people": [
				"https://swapi.dev/api/people/30/"
			],
			"films": [
				"https://swapi.dev/api/films/3/"
			],
			"created": "2014-12-18T11:22:00.285000Z",
			"edited": "2014-12-20T21:36:42.155000Z",
			"url": "https://swapi.dev/api/species/9/"
		},
		{
			"name": "Sullustan",
			"classification": "mammal",
			"designation": "sentient",
			"average_height": "180",
			"skin_colors": "pale",
			"hair_colors": "none",
			"eye_colors": "black",
			"average_lifespan": "unknown",
			"homeworld": "https://swapi.dev/api/planets/33/",
			"language": "Sullutese",
			"people": [
				"https://swapi.dev/api/people/31/"
			],
			"films": [
				"https://swapi.dev/api/films/3/"
			],
			"created": "2014-12-18T11:26:20.103000Z",
			"edited": "2014-12-20T21:36:42.157000Z",
			"url": "https://swapi.dev/api/species/10/"
		},
		{
			"name": "Neimodian",
			"classification": "unknown",
			"designation": "sentient",
			"average_height": "180",
			"skin_colors": "grey, green",
			"hair_colors": "none",
			"eye_colors": "red, pink",
			"average_lifespan": "unknown",
			"homeworld": "https://swapi.dev/api/planets/18/",
			"language": "Neimoidia",
			"people": [
				"https://swapi.dev/api/people/33/"
			],
			"films": [
				"https://swapi.dev/api/films/4/"
			],
			"created": "2014-12-19T17:07:31.319000Z",
			"edited": "2014-12-20T21:36:42.160000Z",
			"url": "https://swapi.dev/api/species/11/"
		},
		{
			"name": "Gungan",
			"classification": "amphibian",
			"designation": "sentient",
			"average_height": "190",
			"skin_colors": "brown, green",
			"hair_colors": "none",
			"eye_colors": "orange",
			"average_lifespan": "unknown",
			"homeworld": "https://swapi.dev/api/planets/8/",
			"language": "Gungan basic",
			"people": [
				"https://swapi.dev/api/people/36/",
				"https://swapi.dev/api/people/37/",
				"https://swapi.dev/api/people/38/"
			],
			"films": [
				"https://swapi.dev/api/films/4/",
				"https://swapi.dev/api/films/5/"
			],
			"created": "2014-12-19T17:30:37.341000Z",
			"edited": "2014-12-20T21:36:42.163000Z",
			"url": "https://swapi.dev/api/species/12/"
		},
		{
			"name": "Toydarian",
			"classification": "mammal",
			"designation": "sentient",
			"average_height": "120",
			"skin_colors": "blue, green, grey",
			"hair_colors": "none",
			"eye_colors": "yellow",
			"average_lifespan": "91",
			"homeworld": "https://swapi.dev/api/planets/34/",
			"language": "Toydarian",
			"people": [
				"https://swapi.dev/api/people/40/"
			],
			"films": [
				"https://swapi.dev/api/films/4/",
				"https://swapi.dev/api/films/5/"
			],
			"created": "2014-12-19T17:48:56.893000Z",
			"edited": "2014-12-20T21:36:42.165000Z",
			"url": "https://swapi.dev/api/species/13/"
		},
		{
			"name": "Dug",
			"classification": "mammal",
			"designation": "sentient",
			"average_height": "100",
			"skin_colors": "brown, purple, grey, red",
			"hair_colors": "none",
			"eye_colors": "yellow, blue",
			"average_lifespan": "unknown",
			"homeworld": "https://swapi.dev/api/planets/35/",
			"language": "Dugese",
			"people": [
				"https://swapi.dev/api/people/41/"
			],
			"films": [
				"https://swapi.dev/api/films/4/"
			],
			"created": "2014-12-19T17:53:11.214000Z",
			"edited": "2014-12-20T21:36:42.167000Z",
			"url": "https://swapi.dev/api/species/14/"
		},
		{
			"name": "Twi'lek",
			"classification": "mammals",
			"designation": "sentient",
			"average_height": "200",
			"skin_colors": "orange, yellow, blue, green, pink, purple, tan",
			"hair_colors": "none",
			"eye_colors": "blue, brown, orange, pink",
			"average_lifespan": "unknown",
			"homeworld": "https://swapi.dev/api/planets/37/",
			"language": "Twi'leki",
			"people": [
				"https://swapi.dev/api/people/45/",
				"https://swapi.dev/api/people/46/"
			],
			"films": [
				"https://swapi.dev/api/films/3/",
				"https://swapi.dev/api/films/4/",
				"https://swapi.dev/api/films/5/",
				"https://swapi.dev/api/films/6/"
			],
			"created": "2014-12-20T09:48:02.406000Z",
			"edited": "2014-12-20T21:36:42.169000Z",
			"url": "https://swapi.dev/api/species/15/"
		},
		{
			"name": "Aleena",
			"classification": "reptile",
			"designation": "sentient",
			"average_height": "80",
			"skin_colors": "blue, gray",
			"hair_colors": "none",
			"eye_colors": "unknown",
			"average_lifespan": "79",
			"homeworld": "https://swapi.dev/api/planets/38/",
			"language": "Aleena",
			"people": [
				"https://swapi.dev/api/people/47/"
			],
			"films": [
				"https://swapi.dev/api/films/4/"
			],
			"created": "2014-12-20T09:53:16.481000Z",
			"edited": "2014-12-20T21:36:42.171000Z",
			"url": "https://swapi.dev/api/species/16/"
		},
		{
			"name": "Vulptereen",
			"classification": "unknown",
			"designation": "sentient",
			"average_height": "100",
			"skin_colors": "grey",
			"hair_colors": "none",
			"eye_colors": "yellow",
			"average_lifespan": "unknown",
			"homeworld": "https://swapi.dev/api/planets/39/",
			"language": "vulpterish",
			"people": [
				"https://swapi.dev/api/people/48/"
			],
			"films": [
				"https://swapi.dev/api/films/4/"
			],
			"created": "2014-12-20T09:57:33.128000Z",
			"edited": "2014-12-20T21:36:42.173000Z",
			"url": "https://swapi.dev/api/species/17/"
		},
		{
			"name": "Xexto",
			"classification": "unknown",
			"designation": "sentient",
			"average_height": "125",
			"skin_colors": "grey, yellow, purple",
			"hair_colors": "none",
			"eye_colors": "black",
			"average_lifespan": "unknown",
			"homeworld": "https://swapi.dev/api/planets/40/",
			"language": "Xextese",
			"people": [
				"https://swapi.dev/api/people/49/"
			],
			"films": [
				"https://swapi.dev/api/films/4/"
			],
			"created": "2014-12-20T10:02:13.915000Z",
			"edited": "2014-12-20T21:36:42.175000Z",
			"url": "https://swapi.dev/api/species/18/"
		},
		{
			"name": "Toong",
			"classification": "unknown",
			"designation": "sentient",
			"average_height": "200",
			"skin_colors": "grey, green, yellow",
			"hair_colors": "none",
			"eye_colors": "orange",
			"average_lifespan": "unknown",
			"homeworld": "https://swapi.dev/api/planets/41/",
			"language": "Tundan",
			"people": [
				"https://swapi.dev/api/people/50/"
			],
			"films": [
				"https://swapi.dev/api/films/4/",
				"https://swapi.dev/api/films/6/"
			],
			"created": "2014-12-20T10:08:36.795000Z",
			"edited": "2014-12-20T21:36:42.177000Z",
			"url": "https://swapi.dev/api/species/19/"
		},
		{
			"name": "Cerean",
			"classification": "mammal",
			"designation": "sentient",
			"average_height": "200",
			"skin_colors": "pale pink",
			"hair_colors": "red, blond, black, white",
			"eye_colors": "hazel",
			"average_lifespan": "unknown",
			"homeworld": "https://swapi.dev/api/planets/43/",
			"language": "Cerean",
			"people": [
				"https://swapi.dev/api/people/52/"
			],
			"films": [
				"https://swapi.dev/api/films/4/",
				"https://swapi.dev/api/films/6/"
			],
			"created": "2014-12-20T10:15:33.765000Z",
			"edited": "2014-12-20T21:36:42.179000Z",
			"url": "https://swapi.dev/api/species/20/"
		}
	]
}